{
  "displayName": "Kotlin",
  "links": [
    {
      "displayName": "Homepage",
      "url": "https://kotl.in",
      "description": "The Kotlin Language Homepage"
    },  {
      "displayName": "Discord",
      "url": "https://discord.gg/jc6Qm37sam",
      "description": "he Kotlin Discord server"
    }
  ]
}
