{
  "displayName": "Android and iOS Apps",
  "links": [
    {
      "displayName": "Official Android Guide",
      "url": "https://developer.android.com/guide",
      "description": [
        "These documents teach you how to build Android apps using APIs in the Android framework and other libraries."
      ]
    },
    {
      "displayName": "Material Design Homepage",
      "url": "https://material.io/",
      "description": [
        "Material Design is the Design System intended by Google for Android and other platforms. It helps you to design intuitive and beautiful Interfaces.",
        "This is the official Website including a guide and further resource."
      ]
    }
  ]
}
